…
-   `relocate()` - Reordenar variables

-   `select()` - Extraer variables. Ayudas de select: - contains() -
    *contienen ““* - matches() - *coinciden con”“* - starts_with() -
    *empiezan por”“* - ends_with() - *acaban por”“* - any_of() - *que
    estén en el set c(”“,”“)*

Ordernar datos por columnas:

``` r
waste %>%
  arrange(population_population_number_of_people) #<<
```

    ## # A tibble: 217 × 28
    ##    iso3c region_id country_name              income_id    gdp population_popula…
    ##    <chr> <chr>     <chr>                     <chr>      <dbl>              <dbl>
    ##  1 TUV   EAS       Tuvalu                    UMC        3793.              11097
    ##  2 NRU   EAS       Nauru                     UMC       11167.              13049
    ##  3 VGB   LCN       British Virgin Islands    HIC       24216.              20645
    ##  4 PLW   EAS       Palau                     HIC       18275.              21503
    ##  5 MAF   LCN       St. Martin (French part)  HIC       30386.              30959
    ##  6 SMR   ECS       San Marino                HIC       58806.              33203
    ##  7 GIB   ECS       Gibraltar                 HIC       43712.              33623
    ##  8 TCA   LCN       Turks and Caicos Islands  HIC       28174.              34900
    ##  9 LIE   ECS       Liechtenstein             HIC       45727.              36545
    ## 10 SXM   LCN       Sint Maarten (Dutch part) HIC          NA               37685
    ## # … with 207 more rows, and 22 more variables:
    ## #   total_msw_total_msw_generated_tons_year <dbl>,
    ## #   composition_food_organic_waste_percent <dbl>,
    ## #   composition_glass_percent <dbl>, composition_metal_percent <dbl>,
    ## #   composition_other_percent <dbl>, composition_paper_cardboard_percent <dbl>,
    ## #   composition_plastic_percent <dbl>,
    ## #   composition_rubber_leather_percent <dbl>, composition_wood_percent <dbl>, …

Ordernar datos por columnas - *descendiente*:

``` r
waste %>%
  arrange(desc(population_population_number_of_people)) #<<
```

    ## # A tibble: 217 × 28
    ##    iso3c region_id country_name       income_id    gdp population_population_nu…
    ##    <chr> <chr>     <chr>              <chr>      <dbl>                     <dbl>
    ##  1 CHN   EAS       China              UMC       16092.                1400050048
    ##  2 IND   SAS       India              LMC        6497.                1352617344
    ##  3 USA   NAC       United States      HIC       61498.                 326687488
    ##  4 IDN   EAS       Indonesia          LMC       10531.                 261115456
    ##  5 BRA   LCN       Brazil             UMC       14596.                 208494896
    ##  6 PAK   SAS       Pakistan           LMC        4571.                 193203472
    ##  7 BGD   SAS       Bangladesh         LMC        3196.                 155727056
    ##  8 NGA   SSF       Nigeria            LMC        4690.                 154402176
    ##  9 RUS   ECS       Russian Federation UMC       26013.                 143201680
    ## 10 JPN   EAS       Japan              HIC       41310.                 126529104
    ## # … with 207 more rows, and 22 more variables:
    ## #   total_msw_total_msw_generated_tons_year <dbl>,
    ## #   composition_food_organic_waste_percent <dbl>,
    ## #   composition_glass_percent <dbl>, composition_metal_percent <dbl>,
    ## #   composition_other_percent <dbl>, composition_paper_cardboard_percent <dbl>,
    ## #   composition_plastic_percent <dbl>,
    ## #   composition_rubber_leather_percent <dbl>, composition_wood_percent <dbl>, …

Ordernar datos por orden jerárquico:

``` r
waste %>%
  arrange(region_id, country_name) #<<
```

    ## # A tibble: 217 × 28
    ##    iso3c region_id country_name         income_id    gdp population_population_…
    ##    <chr> <chr>     <chr>                <chr>      <dbl>                   <dbl>
    ##  1 ASM   EAS       American Samoa       UMC       11113.                   55599
    ##  2 AUS   EAS       Australia            HIC       47784.                23789338
    ##  3 BRN   EAS       Brunei Darussalam    HIC       60866.                  423196
    ##  4 KHM   EAS       Cambodia             LMC        3364.                15270790
    ##  5 CHN   EAS       China                UMC       16092.              1400050048
    ##  6 FJI   EAS       Fiji                 UMC       10788.                  867086
    ##  7 PYF   EAS       French Polynesia     HIC       60956.                  273528
    ##  8 GUM   EAS       Guam                 HIC       59075.                  159973
    ##  9 HKG   EAS       Hong Kong SAR, China HIC       57216.                 7305700
    ## 10 IDN   EAS       Indonesia            LMC       10531.               261115456
    ## # … with 207 more rows, and 22 more variables:
    ## #   total_msw_total_msw_generated_tons_year <dbl>,
    ## #   composition_food_organic_waste_percent <dbl>,
    ## #   composition_glass_percent <dbl>, composition_metal_percent <dbl>,
    ## #   composition_other_percent <dbl>, composition_paper_cardboard_percent <dbl>,
    ## #   composition_plastic_percent <dbl>,
    ## #   composition_rubber_leather_percent <dbl>, composition_wood_percent <dbl>, …

Cambiar nombre columnas:

``` r
waste %>%
  rename(population = population_population_number_of_people, #<<
         total_waste = total_msw_total_msw_generated_tons_year)
```

    ## rename: renamed 2 variables (population, total_waste)

    ## # A tibble: 217 × 28
    ##    iso3c region_id country_name         income_id    gdp population total_waste
    ##    <chr> <chr>     <chr>                <chr>      <dbl>      <dbl>       <dbl>
    ##  1 ABW   LCN       Aruba                HIC       35563.     103187      88132.
    ##  2 AFG   SAS       Afghanistan          LIC        2057.   34656032    5628525.
    ##  3 AGO   SSF       Angola               LMC        8037.   25096150    4213644.
    ##  4 ALB   ECS       Albania              UMC       13724.    2854191    1087447.
    ##  5 AND   ECS       Andorra              HIC       43712.      82431      43000 
    ##  6 ARE   MEA       United Arab Emirates HIC       67119.    9770529    5617682 
    ##  7 ARG   LCN       Argentina            HIC       23550.   42981516   17910550 
    ##  8 ARM   ECS       Armenia              UMC       11020.    2906220     492800 
    ##  9 ASM   EAS       American Samoa       UMC       11113.      55599      18989.
    ## 10 ATG   LCN       Antigua and Barbuda  HIC       17966.      96777      30585 
    ## # … with 207 more rows, and 21 more variables:
    ## #   composition_food_organic_waste_percent <dbl>,
    ## #   composition_glass_percent <dbl>, composition_metal_percent <dbl>,
    ## #   composition_other_percent <dbl>, composition_paper_cardboard_percent <dbl>,
    ## #   composition_plastic_percent <dbl>,
    ## #   composition_rubber_leather_percent <dbl>, composition_wood_percent <dbl>,
    ## #   composition_yard_garden_green_waste_percent <dbl>, …
…
(Des)seleccionar variables:

``` r
waste_select %>%
  select(-gdp)
```

    ## select: dropped one variable (gdp)

    ## # A tibble: 217 × 15
    ##    iso3c region_id country     income_id population total_waste composition_foo…
    ##    <chr> <chr>     <chr>       <chr>          <dbl>       <dbl>            <dbl>
    ##  1 ABW   LCN       Aruba       HIC           103187      88132.             NA  
    ##  2 AFG   SAS       Afghanistan LIC         34656032    5628525.             NA  
    ##  3 AGO   SSF       Angola      LMC         25096150    4213644.             51.8
    ##  4 ALB   ECS       Albania     UMC          2854191    1087447.             51.4
    ##  5 AND   ECS       Andorra     HIC            82431      43000              31.2
    ##  6 ARE   MEA       United Ara… HIC          9770529    5617682              39  
    ##  7 ARG   LCN       Argentina   HIC         42981516   17910550              38.7
    ##  8 ARM   ECS       Armenia     UMC          2906220     492800              57  
    ##  9 ASM   EAS       American S… UMC            55599      18989.             19.7
    ## 10 ATG   LCN       Antigua an… HIC            96777      30585              46  
    ## # … with 207 more rows, and 8 more variables: composition_glass_percent <dbl>,
    ## #   composition_metal_percent <dbl>, composition_other_percent <dbl>,
    ## #   composition_paper_cardboard_percent <dbl>,
    ## #   composition_plastic_percent <dbl>,
    ## #   composition_rubber_leather_percent <dbl>, composition_wood_percent <dbl>,
    ## #   composition_yard_garden_green_waste_percent <dbl>

Organizar columnas:

``` r
waste_select %>%
  relocate(country, .before = iso3c) #<<
```

    ## relocate: columns reordered (country, iso3c, region_id, income_id, gdp, …)

    ## # A tibble: 217 × 16
    ##    country              iso3c region_id income_id    gdp population total_waste
    ##    <chr>                <chr> <chr>     <chr>      <dbl>      <dbl>       <dbl>
    ##  1 Aruba                ABW   LCN       HIC       35563.     103187      88132.
    ##  2 Afghanistan          AFG   SAS       LIC        2057.   34656032    5628525.
    ##  3 Angola               AGO   SSF       LMC        8037.   25096150    4213644.
    ##  4 Albania              ALB   ECS       UMC       13724.    2854191    1087447.
    ##  5 Andorra              AND   ECS       HIC       43712.      82431      43000 
    ##  6 United Arab Emirates ARE   MEA       HIC       67119.    9770529    5617682 
    ##  7 Argentina            ARG   LCN       HIC       23550.   42981516   17910550 
    ##  8 Armenia              ARM   ECS       UMC       11020.    2906220     492800 
    ##  9 American Samoa       ASM   EAS       UMC       11113.      55599      18989.
    ## 10 Antigua and Barbuda  ATG   LCN       HIC       17966.      96777      30585 
    ## # … with 207 more rows, and 9 more variables:
    ## #   composition_food_organic_waste_percent <dbl>,
    ## #   composition_glass_percent <dbl>, composition_metal_percent <dbl>,
    ## #   composition_other_percent <dbl>, composition_paper_cardboard_percent <dbl>,
    ## #   composition_plastic_percent <dbl>,
    ## #   composition_rubber_leather_percent <dbl>, composition_wood_percent <dbl>,
    ## #   composition_yard_garden_green_waste_percent <dbl>
…
Filtrar datos:

``` r
waste_regions %>%
  filter(region_id == "Latin_America")
```

    ## filter: removed 175 rows (81%), 42 rows remaining

    ## # A tibble: 42 × 16
    ##    iso3c region_id     country           income_id    gdp population total_waste
    ##    <chr> <chr>         <chr>             <chr>      <dbl>      <dbl>       <dbl>
    ##  1 ABW   Latin_America Aruba             HIC       35563.     103187      88132.
    ##  2 ARG   Latin_America Argentina         HIC       23550.   42981516   17910550 
    ##  3 ATG   Latin_America Antigua and Barb… HIC       17966.      96777      30585 
    ##  4 BHS   Latin_America Bahamas, The      HIC       35400.     386838     264000 
    ##  5 BLZ   Latin_America Belize            UMC        7259.     359288     101379.
    ##  6 BOL   Latin_America Bolivia           LMC        7984.   10724705    2219052 
    ##  7 BRA   Latin_America Brazil            UMC       14596.  208494896   79069584 
    ##  8 BRB   Latin_America Barbados          HIC       15445.     280601     174815.
    ##  9 CHL   Latin_America Chile             HIC       20362.   16829442    6517000 
    ## 10 COL   Latin_America Colombia          UMC       12523.   46406648   12150120 
    ## # … with 32 more rows, and 9 more variables:
    ## #   composition_food_organic_waste_percent <dbl>,
    ## #   composition_glass_percent <dbl>, composition_metal_percent <dbl>,
    ## #   composition_other_percent <dbl>, composition_paper_cardboard_percent <dbl>,
    ## #   composition_plastic_percent <dbl>,
    ## #   composition_rubber_leather_percent <dbl>, composition_wood_percent <dbl>,
    ## #   composition_yard_garden_green_waste_percent <dbl>
…
``` r
waste_regions %>%
  mutate(pop_size = case_when(
    population >= 1000000 ~ "big",
    population < 1000000 & population > 500000 ~ "medium",
    population <= 500000 ~ "small")) %>%
  relocate(pop_size, .before = population)
```

    ## mutate: new variable 'pop_size' (character) with 3 unique values and 0% NA

    ## relocate: columns reordered (iso3c, region_id, country, income_id, gdp, …)

    ## # A tibble: 217 × 17
    ##    iso3c region_id      country income_id    gdp pop_size population total_waste
    ##    <chr> <chr>          <chr>   <chr>      <dbl> <chr>         <dbl>       <dbl>
    ##  1 ABW   Latin_America  Aruba   HIC       35563. small        103187      88132.
    ##  2 AFG   South_Asia     Afghan… LIC        2057. big        34656032    5628525.
    ##  3 AGO   Sub-Saharan_A… Angola  LMC        8037. big        25096150    4213644.
    ##  4 ALB   Europe_Centra… Albania UMC       13724. big         2854191    1087447.
    ##  5 AND   Europe_Centra… Andorra HIC       43712. small         82431      43000 
    ##  6 ARE   Middle_East_N… United… HIC       67119. big         9770529    5617682 
    ##  7 ARG   Latin_America  Argent… HIC       23550. big        42981516   17910550 
    ##  8 ARM   Europe_Centra… Armenia UMC       11020. big         2906220     492800 
    ##  9 ASM   East_Asia_Pac… Americ… UMC       11113. small         55599      18989.
    ## 10 ATG   Latin_America  Antigu… HIC       17966. small         96777      30585 
    ## # … with 207 more rows, and 9 more variables:
    ## #   composition_food_organic_waste_percent <dbl>,
    ## #   composition_glass_percent <dbl>, composition_metal_percent <dbl>,
    ## #   composition_other_percent <dbl>, composition_paper_cardboard_percent <dbl>,
    ## #   composition_plastic_percent <dbl>,
    ## #   composition_rubber_leather_percent <dbl>, composition_wood_percent <dbl>,
    ## #   composition_yard_garden_green_waste_percent <dbl>
…
``` r
composition <- waste_world %>%
  pivot_longer(cols = starts_with("composition"), names_to = "composition", values_to = "percent")
```

    ## pivot_longer: reorganized (composition_food_organic_waste_percent, composition_glass_percent, composition_metal_percent, composition_other_percent, composition_paper_cardboard_percent, …) into (composition, percent) [was 217x18, now 1953x11]

``` r
composition %>%
  select(country, composition, percent)
```

    ## select: dropped 8 variables (iso_a3, region_id, income_id, gdp, population, …)

    ## # A tibble: 1,953 × 3
    ##    country     composition                                 percent
    ##    <chr>       <chr>                                         <dbl>
    ##  1 Aruba       composition_food_organic_waste_percent           NA
    ##  2 Aruba       composition_glass_percent                        NA
    ##  3 Aruba       composition_metal_percent                        NA
    ##  4 Aruba       composition_other_percent                        NA
    ##  5 Aruba       composition_paper_cardboard_percent              NA
    ##  6 Aruba       composition_plastic_percent                      NA
    ##  7 Aruba       composition_rubber_leather_percent               NA
    ##  8 Aruba       composition_wood_percent                         NA
    ##  9 Aruba       composition_yard_garden_green_waste_percent      NA
    ## 10 Afghanistan composition_food_organic_waste_percent           NA
    ## # … with 1,943 more rows

``` r
composition %>%
  select(country, composition, percent) %>%
  arrange(desc(country))
```

    ## select: dropped 8 variables (iso_a3, region_id, income_id, gdp, population, …)

    ## # A tibble: 1,953 × 3
    ##    country  composition                                 percent
    ##    <chr>    <chr>                                         <dbl>
    ##  1 Zimbabwe composition_food_organic_waste_percent           36
    ##  2 Zimbabwe composition_glass_percent                         5
    ##  3 Zimbabwe composition_metal_percent                         6
    ##  4 Zimbabwe composition_other_percent                         3
    ##  5 Zimbabwe composition_paper_cardboard_percent              27
    ##  6 Zimbabwe composition_plastic_percent                      23
    ##  7 Zimbabwe composition_rubber_leather_percent               NA
    ##  8 Zimbabwe composition_wood_percent                         NA
    ##  9 Zimbabwe composition_yard_garden_green_waste_percent      NA
    ## 10 Zambia   composition_food_organic_waste_percent           NA
    ## # … with 1,943 more rows
…
**Comprobar datos:** asegurar que los porcentajes suman 100%

``` r
composition_clean %>%
  group_by(country) %>%
  summarise(per_sum = sum(percent, na.rm = TRUE))  #<<
```

    ## group_by: one grouping variable (country)

    ## summarise: now 217 rows and 2 columns, ungrouped

    ## # A tibble: 217 × 2
    ##    country             per_sum
    ##    <chr>                 <dbl>
    ##  1 Afghanistan             0  
    ##  2 Albania               100. 
    ##  3 Algeria               100  
    ##  4 American Samoa        100  
    ##  5 Andorra               100  
    ##  6 Angola                 99.8
    ##  7 Antigua and Barbuda   100  
    ##  8 Argentina             100. 
    ##  9 Armenia               100  
    ## 10 Aruba                   0  
    ## # … with 207 more rows
…
