Data manipulation in R
…
---

Ordernar datos por columnas:

```r
waste %>%
* arrange(population_population_number_of_people)
```

```
## # A tibble: 217 × 28
##    iso3c region_id country_name           income_id    gdp population_popu… total_msw_total… composition_foo…
##    <chr> <chr>     <chr>                  <chr>      <dbl>            <dbl>            <dbl>            <dbl>
##  1 TUV   EAS       Tuvalu                 UMC        3793.            11097            3989.            43.6 
##  2 NRU   EAS       Nauru                  UMC       11167.            13049            6192.            43.6 
##  3 VGB   LCN       British Virgin Islands HIC       24216.            20645           21099.             6.5 
##  4 PLW   EAS       Palau                  HIC       18275.            21503            9427.            26   
##  5 MAF   LCN       St. Martin (French pa… HIC       30386.            30959           15480.            NA   
##  6 SMR   ECS       San Marino             HIC       58806.            33203           17175.             5.35
##  7 GIB   ECS       Gibraltar              HIC       43712.            33623           16954             24.6 
##  8 TCA   LCN       Turks and Caicos Isla… HIC       28174.            34900              NA             21.8 
##  9 LIE   ECS       Liechtenstein          HIC       45727.            36545           32382             37.6 
## 10 SXM   LCN       Sint Maarten (Dutch p… HIC          NA             37685              NA             46   
## # … with 207 more rows, and 20 more variables: composition_glass_percent <dbl>,
## #   composition_metal_percent <dbl>, composition_other_percent <dbl>,
## #   composition_paper_cardboard_percent <dbl>, composition_plastic_percent <dbl>,
## #   composition_rubber_leather_percent <dbl>, composition_wood_percent <dbl>,
## #   composition_yard_garden_green_waste_percent <dbl>, waste_treatment_anaerobic_digestion_percent <dbl>,
## #   waste_treatment_compost_percent <dbl>, waste_treatment_controlled_landfill_percent <dbl>,
## #   waste_treatment_incineration_percent <dbl>, waste_treatment_landfill_unspecified_percent <dbl>, …
```

---

Ordernar datos por columnas 

*descendiente*:

```r
waste %>%
* arrange(desc(population_population_number_of_people))
```

```
## # A tibble: 217 × 28
##    iso3c region_id country_name       income_id    gdp population_populati… total_msw_total… composition_foo…
##    <chr> <chr>     <chr>              <chr>      <dbl>                <dbl>            <dbl>            <dbl>
##  1 CHN   EAS       China              UMC       16092.           1400050048       395081376              61.2
##  2 IND   SAS       India              LMC        6497.           1352617344       189750000              NA  
##  3 USA   NAC       United States      HIC       61498.            326687488       265224528              14.9
##  4 IDN   EAS       Indonesia          LMC       10531.            261115456        65200000              53.8
##  5 BRA   LCN       Brazil             UMC       14596.            208494896        79069584              51.4
##  6 PAK   SAS       Pakistan           LMC        4571.            193203472        30760000              30  
##  7 BGD   SAS       Bangladesh         LMC        3196.            155727056        14778497.             80.6
##  8 NGA   SSF       Nigeria            LMC        4690.            154402176        27614830.             NA  
##  9 RUS   ECS       Russian Federation UMC       26013.            143201680        60000000              28.4
## 10 JPN   EAS       Japan              HIC       41310.            126529104        42720000              36  
## # … with 207 more rows, and 20 more variables: composition_glass_percent <dbl>,
## #   composition_metal_percent <dbl>, composition_other_percent <dbl>,
## #   composition_paper_cardboard_percent <dbl>, composition_plastic_percent <dbl>,
## #   composition_rubber_leather_percent <dbl>, composition_wood_percent <dbl>,
## #   composition_yard_garden_green_waste_percent <dbl>, waste_treatment_anaerobic_digestion_percent <dbl>,
## #   waste_treatment_compost_percent <dbl>, waste_treatment_controlled_landfill_percent <dbl>,
## #   waste_treatment_incineration_percent <dbl>, waste_treatment_landfill_unspecified_percent <dbl>, …
```
 
---

Ordernar datos por orden jerárquico:

```r
waste %>%
* arrange(region_id, country_name)
```

```
## # A tibble: 217 × 28
##    iso3c region_id country_name         income_id    gdp population_popula… total_msw_total… composition_foo…
##    <chr> <chr>     <chr>                <chr>      <dbl>              <dbl>            <dbl>            <dbl>
##  1 ASM   EAS       American Samoa       UMC       11113.              55599           18989.             19.7
##  2 AUS   EAS       Australia            HIC       47784.           23789338        13345000              48.4
##  3 BRN   EAS       Brunei Darussalam    HIC       60866.             423196          216253.             36  
##  4 KHM   EAS       Cambodia             LMC        3364.           15270790         1089000              66.6
##  5 CHN   EAS       China                UMC       16092.         1400050048       395081376              61.2
##  6 FJI   EAS       Fiji                 UMC       10788.             867086          189390.             33.2
##  7 PYF   EAS       French Polynesia     HIC       60956.             273528          147000              47  
##  8 GUM   EAS       Guam                 HIC       59075.             159973          141500              27.3
##  9 HKG   EAS       Hong Kong SAR, China HIC       57216.            7305700         5679816.             35  
## 10 IDN   EAS       Indonesia            LMC       10531.          261115456        65200000              53.8
## # … with 207 more rows, and 20 more variables: composition_glass_percent <dbl>,
## #   composition_metal_percent <dbl>, composition_other_percent <dbl>,
## #   composition_paper_cardboard_percent <dbl>, composition_plastic_percent <dbl>,
## #   composition_rubber_leather_percent <dbl>, composition_wood_percent <dbl>,
## #   composition_yard_garden_green_waste_percent <dbl>, waste_treatment_anaerobic_digestion_percent <dbl>,
## #   waste_treatment_compost_percent <dbl>, waste_treatment_controlled_landfill_percent <dbl>,
## #   waste_treatment_incineration_percent <dbl>, waste_treatment_landfill_unspecified_percent <dbl>, …
```
…
Cambiar nombre columnas:

```r
waste %>%
* rename(population = population_population_number_of_people,
         total_waste = total_msw_total_msw_generated_tons_year)
```

```
## rename: renamed 2 variables (population, total_waste)
```

```
## # A tibble: 217 × 28
##    iso3c region_id country_name     income_id    gdp population total_waste composition_foo… composition_gla…
##    <chr> <chr>     <chr>            <chr>      <dbl>      <dbl>       <dbl>            <dbl>            <dbl>
##  1 ABW   LCN       Aruba            HIC       35563.     103187      88132.             NA              NA   
##  2 AFG   SAS       Afghanistan      LIC        2057.   34656032    5628525.             NA              NA   
##  3 AGO   SSF       Angola           LMC        8037.   25096150    4213644.             51.8             6.7 
##  4 ALB   ECS       Albania          UMC       13724.    2854191    1087447.             51.4             4.5 
##  5 AND   ECS       Andorra          HIC       43712.      82431      43000              31.2             8.2 
##  6 ARE   MEA       United Arab Emi… HIC       67119.    9770529    5617682              39               4   
##  7 ARG   LCN       Argentina        HIC       23550.   42981516   17910550              38.7             3.16
##  8 ARM   ECS       Armenia          UMC       11020.    2906220     492800              57               3.2 
##  9 ASM   EAS       American Samoa   UMC       11113.      55599      18989.             19.7             3.4 
## 10 ATG   LCN       Antigua and Bar… HIC       17966.      96777      30585              46               7   
## # … with 207 more rows, and 19 more variables: composition_metal_percent <dbl>,
## #   composition_other_percent <dbl>, composition_paper_cardboard_percent <dbl>,
## #   composition_plastic_percent <dbl>, composition_rubber_leather_percent <dbl>,
## #   composition_wood_percent <dbl>, composition_yard_garden_green_waste_percent <dbl>,
## #   waste_treatment_anaerobic_digestion_percent <dbl>, waste_treatment_compost_percent <dbl>,
## #   waste_treatment_controlled_landfill_percent <dbl>, waste_treatment_incineration_percent <dbl>,
## #   waste_treatment_landfill_unspecified_percent <dbl>, waste_treatment_open_dump_percent <dbl>, …
```
---

Organizar columnas:

```r
waste %>%
* relocate(country_name, .before = iso3c)
```

```
## relocate: columns reordered (country_name, iso3c, region_id, income_id, gdp, …)
```

```
## # A tibble: 217 × 28
##    country_name         iso3c region_id income_id    gdp population_popula… total_msw_total… composition_foo…
##    <chr>                <chr> <chr>     <chr>      <dbl>              <dbl>            <dbl>            <dbl>
##  1 Aruba                ABW   LCN       HIC       35563.             103187           88132.             NA  
##  2 Afghanistan          AFG   SAS       LIC        2057.           34656032         5628525.             NA  
##  3 Angola               AGO   SSF       LMC        8037.           25096150         4213644.             51.8
##  4 Albania              ALB   ECS       UMC       13724.            2854191         1087447.             51.4
##  5 Andorra              AND   ECS       HIC       43712.              82431           43000              31.2
##  6 United Arab Emirates ARE   MEA       HIC       67119.            9770529         5617682              39  
##  7 Argentina            ARG   LCN       HIC       23550.           42981516        17910550              38.7
##  8 Armenia              ARM   ECS       UMC       11020.            2906220          492800              57  
##  9 American Samoa       ASM   EAS       UMC       11113.              55599           18989.             19.7
## 10 Antigua and Barbuda  ATG   LCN       HIC       17966.              96777           30585              46  
## # … with 207 more rows, and 20 more variables: composition_glass_percent <dbl>,
## #   composition_metal_percent <dbl>, composition_other_percent <dbl>,
## #   composition_paper_cardboard_percent <dbl>, composition_plastic_percent <dbl>,
## #   composition_rubber_leather_percent <dbl>, composition_wood_percent <dbl>,
## #   composition_yard_garden_green_waste_percent <dbl>, waste_treatment_anaerobic_digestion_percent <dbl>,
## #   waste_treatment_compost_percent <dbl>, waste_treatment_controlled_landfill_percent <dbl>,
## #   waste_treatment_incineration_percent <dbl>, waste_treatment_landfill_unspecified_percent <dbl>, …
```
---

(Des)seleccionar variables:

```r
waste %>%
* select(-region_id)
```

```
## select: dropped one variable (region_id)
```

```
## # A tibble: 217 × 27
##    iso3c country_name    income_id    gdp population_popu… total_msw_total… composition_foo… composition_gla…
##    <chr> <chr>           <chr>      <dbl>            <dbl>            <dbl>            <dbl>            <dbl>
##  1 ABW   Aruba           HIC       35563.           103187           88132.             NA              NA   
##  2 AFG   Afghanistan     LIC        2057.         34656032         5628525.             NA              NA   
##  3 AGO   Angola          LMC        8037.         25096150         4213644.             51.8             6.7 
##  4 ALB   Albania         UMC       13724.          2854191         1087447.             51.4             4.5 
##  5 AND   Andorra         HIC       43712.            82431           43000              31.2             8.2 
##  6 ARE   United Arab Em… HIC       67119.          9770529         5617682              39               4   
##  7 ARG   Argentina       HIC       23550.         42981516        17910550              38.7             3.16
##  8 ARM   Armenia         UMC       11020.          2906220          492800              57               3.2 
##  9 ASM   American Samoa  UMC       11113.            55599           18989.             19.7             3.4 
## 10 ATG   Antigua and Ba… HIC       17966.            96777           30585              46               7   
## # … with 207 more rows, and 19 more variables: composition_metal_percent <dbl>,
## #   composition_other_percent <dbl>, composition_paper_cardboard_percent <dbl>,
## #   composition_plastic_percent <dbl>, composition_rubber_leather_percent <dbl>,
## #   composition_wood_percent <dbl>, composition_yard_garden_green_waste_percent <dbl>,
## #   waste_treatment_anaerobic_digestion_percent <dbl>, waste_treatment_compost_percent <dbl>,
## #   waste_treatment_controlled_landfill_percent <dbl>, waste_treatment_incineration_percent <dbl>,
## #   waste_treatment_landfill_unspecified_percent <dbl>, waste_treatment_open_dump_percent <dbl>, …
```
…
---

Filtrar datos:

```r
waste_regions %>%
  filter(region_id == "Latin_America")
```

```
## filter: removed 175 rows (81%), 42 rows remaining
```

```
## # A tibble: 42 × 16
##    iso3c region_id     country      income_id    gdp population total_waste composition_foo… composition_gla…
##    <chr> <chr>         <chr>        <chr>      <dbl>      <dbl>       <dbl>            <dbl>            <dbl>
##  1 BRA   Latin_America Brazil       UMC       14596.  208494896   79069584              51.4             2.4 
##  2 MEX   Latin_America Mexico       UMC       19332.  125890952   53100000              52.4             5.9 
##  3 ARG   Latin_America Argentina    HIC       23550.   42981516   17910550              38.7             3.16
##  4 COL   Latin_America Colombia     UMC       12523.   46406648   12150120              59.6             2.35
##  5 VEN   Latin_America Venezuela, … UMC       14270.   29893080    9779093.             NA              NA   
##  6 PER   Latin_America Peru         UMC       11877.   30973354    8356711.             50.4             3.05
##  7 CHL   Latin_America Chile        HIC       20362.   16829442    6517000              53.3             6.6 
##  8 ECU   Latin_America Ecuador      UMC       11896.   16144368    5297211.             58.7             3.01
##  9 PRI   Latin_America Puerto Rico  HIC       34311.    3473181    4170953              13.1             2.4 
## 10 DOM   Latin_America Dominican R… UMC       15328.   10528394    4063910              51               6   
## # … with 32 more rows, and 7 more variables: composition_metal_percent <dbl>,
## #   composition_other_percent <dbl>, composition_paper_cardboard_percent <dbl>,
## #   composition_plastic_percent <dbl>, composition_rubber_leather_percent <dbl>,
## #   composition_wood_percent <dbl>, composition_yard_garden_green_waste_percent <dbl>
```
…
```
## mutate: new variable 'pop_size' (character) with 3 unique values and 0% NA
```

```
## relocate: columns reordered (iso3c, region_id, country, income_id, gdp, …)
```

```
## # A tibble: 217 × 17
##    iso3c region_id country income_id    gdp pop_size population total_waste composition_foo… composition_gla…
##    <chr> <chr>     <chr>   <chr>      <dbl> <chr>         <dbl>       <dbl>            <dbl>            <dbl>
##  1 CHN   East_Asi… China   UMC       16092. big      1400050048   395081376             61.2              2.1
##  2 USA   North_Am… United… HIC       61498. big       326687488   265224528             14.9              4.4
##  3 IND   South_As… India   LMC        6497. big      1352617344   189750000             NA               NA  
##  4 BRA   Latin_Am… Brazil  UMC       14596. big       208494896    79069584             51.4              2.4
##  5 IDN   East_Asi… Indone… LMC       10531. big       261115456    65200000             53.8              2.5
##  6 RUS   Europe_C… Russia… UMC       26013. big       143201680    60000000             28.4             16.8
##  7 MEX   Latin_Am… Mexico  UMC       19332. big       125890952    53100000             52.4              5.9
##  8 DEU   Europe_C… Germany HIC       53785. big        83132800    50627876             30               10  
##  9 JPN   East_Asi… Japan   HIC       41310. big       126529104    42720000             36                5  
## 10 FRA   Europe_C… France  HIC       46110. big        67059888    36748820             32               10  
## # … with 207 more rows, and 7 more variables: composition_metal_percent <dbl>,
## #   composition_other_percent <dbl>, composition_paper_cardboard_percent <dbl>,
## #   composition_plastic_percent <dbl>, composition_rubber_leather_percent <dbl>,
## #   composition_wood_percent <dbl>, composition_yard_garden_green_waste_percent <dbl>
```
…
---

```r
composition %>%
  select(country, composition, percent)
```

```
## select: dropped 8 variables (iso_a3, region_id, income_id, gdp, population, …)
```

```
## # A tibble: 1,953 × 3
##    country       composition                                 percent
##    <chr>         <chr>                                         <dbl>
##  1 China         composition_food_organic_waste_percent         61.2
##  2 China         composition_glass_percent                       2.1
##  3 China         composition_metal_percent                       1.1
##  4 China         composition_other_percent                      13.1
##  5 China         composition_paper_cardboard_percent             9.6
##  6 China         composition_plastic_percent                     9.8
##  7 China         composition_rubber_leather_percent              1.3
##  8 China         composition_wood_percent                        1.8
##  9 China         composition_yard_garden_green_waste_percent    NA  
## 10 United States composition_food_organic_waste_percent         14.9
## # … with 1,943 more rows
```
…
```
## group_by: one grouping variable (country)
```

```
## summarise: now 217 rows and 2 columns, ungrouped
```

```
## # A tibble: 217 × 2
##    country             per_sum
##    <chr>                 <dbl>
##  1 Afghanistan             0  
##  2 Albania               100. 
##  3 Algeria               100  
##  4 American Samoa        100  
##  5 Andorra               100  
##  6 Angola                 99.8
##  7 Antigua and Barbuda   100  
##  8 Argentina             100. 
##  9 Armenia               100  
## 10 Aruba                   0  
## # … with 207 more rows
```
…
